type,timestamp,accelRawX,accelRawY,accelRawZ,accelX,accelY,accelZ,gyroRawX,gyroRawY,gyroRawZ,gyroX,gyroY,gyroXZ,magX,magY,magZ,GPS_Measures,GPS_LatitudeDegrees,GPS_LongitudeDegrees,GPS_Altitude,GPS_VelocityKnots,GPS_VelocityAngleDegrees,AHRS_AccelX,AHRS_AccelY,AHRS_AccelZ,roll,yaw,pitch,temperature,pressure,altitude,data1,data2
0,1,2,3,4,5.50000,6.60000,7.70000,8,9,10,11.11000,12.12000,13.13000,20.20000,21.21000,22.22000,1.00000,25.25000,26.26000,27.27000,28.28000,29.29000,30.30000,31.31000,32.32000,33.33000,34.34000,35.35000,36.36000,37.37000,38.38000,39.39000,40.40000
0,500,2,3,4,5.50000,6.60000,7.70000,8,9,10,11.11000,12.12000,13.13000,20.20000,21.21000,22.22000,1.00000,25.25000,26.26000,27.27000,28.28000,29.29000,30.30000,31.31000,32.32000,33.33000,34.34000,35.35000,36.36000,37.37000,38.38000,39.39000,40.40000
0,1000,2,3,4,5.50000,6.60000,7.70000,8,9,10,11.11000,12.12000,13.13000,20.20000,21.21000,22.22000,1.00000,25.25000,26.26000,27.27000,28.28000,29.29000,30.30000,31.31000,32.32000,33.33000,34.34000,35.35000,36.36000,37.37000,38.38000,39.39000,40.40000
0,2000,2,3,4,5.50000,6.60000,7.70000,8,9,10,11.11000,12.12000,13.13000,20.20000,21.21000,22.22000,1.00000,25.25000,26.26000,27.27000,28.28000,29.29000,30.30000,31.31000,32.32000,33.33000,34.34000,35.35000,36.36000,37.37000,38.38000,39.39000,40.40000
0,2500,2,3,4,5.50000,6.60000,7.70000,8,9,10,11.11000,12.12000,13.13000,20.20000,21.21000,22.22000,1.00000,25.25000,26.26000,27.27000,28.28000,29.29000,30.30000,31.31000,32.32000,33.33000,34.34000,35.35000,36.36000,37.37000,38.38000,39.39000,40.40000
""
