#AccelZeroG_X, AccelZeroG_Y, AccelZeroG_Z
-155.06054687,35.37988281,582.66015625
#AccelResolution_X, AccelResolution_Y, AccelResolution_Z
-0.00058489,-0.00058631,-0.00059821
# Mag offsets,,
-6.045,-4.79,-10.601
# Mag transformation matrix,,
1.087,-0.106,0.036
-0.052,1.077,0.019
0.02,0.014,1.188
#GyroZeroRate_X, GyroZeroRate_Y, GyroZeroRate_Z
12.13999938,-4.11999988,-670.45996093
#GyroResolution_X, GyroResolution_Y, GyroResolution_Z
0.00875,0.00875,0.00875
