#AccelZeroG_X, AccelZeroG_Y, AccelZeroG_Z
-1002.50000000,-10.59997559,69.64001465
#AccelResolution_X, AccelResolution_Y, AccelResolution_Z
0.00285017,0.00292626,0.00265523
# Mag offsets,,
0,0,0
# Mag transformation matrix,,
1,0,0
0,1,0
0,0,1
#GyroZeroRate_X, GyroZeroRate_Y, GyroZeroRate_Z = 
-164.72000122,17.50000000,-423.58001709
#GyroResolution_X, GyroResolution_Y, GyroResolution_Z
0.00875000,0.00875000,0.00875000

